// Jest Snapshot v1, https://goo.gl/fbAQLP

exports[`components/MessageList renders correctly with messages 1`] = `
.c1 {
  margin: 0;
  font-family: "Roboto","Helvetica","Arial",sans-serif;
  font-weight: 500;
  font-size: 1.125rem;
  line-height: 1.6;
  -webkit-letter-spacing: 0.0075em;
  -moz-letter-spacing: 0.0075em;
  -ms-letter-spacing: 0.0075em;
  letter-spacing: 0.0075em;
}

.c2 {
  margin: 0;
  font-family: "Roboto","Helvetica","Arial",sans-serif;
  font-weight: 400;
  font-size: 0.875rem;
  line-height: 1.43;
  -webkit-letter-spacing: 0.01071em;
  -moz-letter-spacing: 0.01071em;
  -ms-letter-spacing: 0.01071em;
  letter-spacing: 0.01071em;
}

.c7 {
  margin: 0;
  font-family: "Roboto","Helvetica","Arial",sans-serif;
  font-weight: 400;
  font-size: 1rem;
  line-height: 1.5;
  -webkit-letter-spacing: 0.00938em;
  -moz-letter-spacing: 0.00938em;
  -ms-letter-spacing: 0.00938em;
  letter-spacing: 0.00938em;
}

.c4 {
  background-color: #fff;
  color: rgba(0,0,0,0.87);
  -webkit-transition: box-shadow 300ms cubic-bezier(0.4,0,0.2,1) 0ms;
  transition: box-shadow 300ms cubic-bezier(0.4,0,0.2,1) 0ms;
  border-radius: 4px;
  box-shadow: 0px 3px 1px -2px rgba(0,0,0,0.2),0px 2px 2px 0px rgba(0,0,0,0.14),0px 1px 5px 0px rgba(0,0,0,0.12);
}

.c12 {
  overflow: hidden;
  pointer-events: none;
  position: absolute;
  z-index: 0;
  top: 0;
  right: 0;
  bottom: 0;
  left: 0;
  border-radius: inherit;
}

.c9 {
  display: -webkit-inline-box;
  display: -webkit-inline-flex;
  display: -ms-inline-flexbox;
  display: inline-flex;
  -webkit-align-items: center;
  -webkit-box-align: center;
  -ms-flex-align: center;
  align-items: center;
  -webkit-box-pack: center;
  -webkit-justify-content: center;
  -ms-flex-pack: center;
  justify-content: center;
  position: relative;
  box-sizing: border-box;
  -webkit-tap-highlight-color: transparent;
  background-color: transparent;
  outline: 0;
  border: 0;
  margin: 0;
  border-radius: 0;
  padding: 0;
  cursor: pointer;
  -webkit-user-select: none;
  -moz-user-select: none;
  -ms-user-select: none;
  user-select: none;
  vertical-align: middle;
  -moz-appearance: none;
  -webkit-appearance: none;
  -webkit-text-decoration: none;
  text-decoration: none;
  color: inherit;
}

.c9::-moz-focus-inner {
  border-style: none;
}

.c9.Mui-disabled {
  pointer-events: none;
  cursor: default;
}

.c10 {
  font-family: "Roboto","Helvetica","Arial",sans-serif;
  font-weight: 500;
  font-size: 0.8125rem;
  line-height: 1.75;
  -webkit-letter-spacing: 0.02857em;
  -moz-letter-spacing: 0.02857em;
  -ms-letter-spacing: 0.02857em;
  letter-spacing: 0.02857em;
  text-transform: uppercase;
  min-width: 64px;
  padding: 4px 5px;
  border-radius: 4px;
  -webkit-transition: background-color 250ms cubic-bezier(0.4,0,0.2,1) 0ms,box-shadow 250ms cubic-bezier(0.4,0,0.2,1) 0ms,border-color 250ms cubic-bezier(0.4,0,0.2,1) 0ms,color 250ms cubic-bezier(0.4,0,0.2,1) 0ms;
  transition: background-color 250ms cubic-bezier(0.4,0,0.2,1) 0ms,box-shadow 250ms cubic-bezier(0.4,0,0.2,1) 0ms,border-color 250ms cubic-bezier(0.4,0,0.2,1) 0ms,color 250ms cubic-bezier(0.4,0,0.2,1) 0ms;
  color: #1976d2;
}

.c10:hover {
  -webkit-text-decoration: none;
  text-decoration: none;
  background-color: rgba(25,118,210,0.04);
}

.c10.Mui-disabled {
  color: rgba(0,0,0,0.26);
}

.c6 {
  background-color: #88fca3;
  padding: 16px;
}

.c5 + .c5 {
  margin-top: 12px;
}

.c11 {
  color: #000;
  text-transform: none;
}

.c8 {
  text-align: right;
}

.c0 {
  margin-bottom: 8px;
}

.c3 {
  height: 70vh;
  width: 28vw;
  overflow: auto;
}

@media (min-width:600px) {
  .c1 {
    font-size: 1.25rem;
  }
}

@media (min-width:900px) {
  .c1 {
    font-size: 1.25rem;
  }
}

@media (min-width:1200px) {
  .c1 {
    font-size: 1.25rem;
  }
}

@media print {
  .c9 {
    color-adjust: exact;
  }
}

@media (hover:none) {
  .c10:hover {
    background-color: transparent;
  }
}

<div>
  <div>
    <div
      class="c0"
    >
      <h4
        class="c1 MuiTypography-root MuiTypography-h6"
      >
        Info Type 3
      </h4>
      <span
        class="c2 MuiTypography-root MuiTypography-body2"
        data-testid="count"
      >
        Count 
        2
      </span>
    </div>
    <div
      class="c3"
      data-testid="content"
    >
      <div
        class="c4 MuiPaper-root MuiPaper-elevation MuiPaper-rounded MuiPaper-elevation2 c5 c6"
        priority="2"
      >
        <p
          class="c7 MuiTypography-root MuiTypography-body1"
        >
          Some Info message 1
        </p>
        <div
          class="c8"
        >
          <button
            class="c9 MuiButton-root MuiButton-text MuiButton-textPrimary MuiButton-sizeSmall MuiButton-textSizeSmall MuiButtonBase-root c10 c11"
            tabindex="0"
            type="button"
          >
            Clear
            <span
              class="c12 MuiTouchRipple-root"
            />
          </button>
        </div>
      </div>
      <div
        class="c4 MuiPaper-root MuiPaper-elevation MuiPaper-rounded MuiPaper-elevation2 c5 c6"
        priority="2"
      >
        <p
          class="c7 MuiTypography-root MuiTypography-body1"
        >
          Some Info message 2
        </p>
        <div
          class="c8"
        >
          <button
            class="c9 MuiButton-root MuiButton-text MuiButton-textPrimary MuiButton-sizeSmall MuiButton-textSizeSmall MuiButtonBase-root c10 c11"
            tabindex="0"
            type="button"
          >
            Clear
            <span
              class="c12 MuiTouchRipple-root"
            />
          </button>
        </div>
      </div>
    </div>
  </div>
</div>
`;

exports[`components/MessageList renders correctly with no messages 1`] = `
.c1 {
  margin: 0;
  font-family: "Roboto","Helvetica","Arial",sans-serif;
  font-weight: 500;
  font-size: 1.125rem;
  line-height: 1.6;
  -webkit-letter-spacing: 0.0075em;
  -moz-letter-spacing: 0.0075em;
  -ms-letter-spacing: 0.0075em;
  letter-spacing: 0.0075em;
}

.c2 {
  margin: 0;
  font-family: "Roboto","Helvetica","Arial",sans-serif;
  font-weight: 400;
  font-size: 0.875rem;
  line-height: 1.43;
  -webkit-letter-spacing: 0.01071em;
  -moz-letter-spacing: 0.01071em;
  -ms-letter-spacing: 0.01071em;
  letter-spacing: 0.01071em;
}

.c0 {
  margin-bottom: 8px;
}

.c3 {
  height: 70vh;
  width: 28vw;
  overflow: auto;
}

@media (min-width:600px) {
  .c1 {
    font-size: 1.25rem;
  }
}

@media (min-width:900px) {
  .c1 {
    font-size: 1.25rem;
  }
}

@media (min-width:1200px) {
  .c1 {
    font-size: 1.25rem;
  }
}

<div>
  <div
    class="c0"
  >
    <h4
      class="c1 MuiTypography-root MuiTypography-h6"
    >
      Error Type 1
    </h4>
    <span
      class="c2 MuiTypography-root MuiTypography-body2"
      data-testid="count"
    >
      Count 
      0
    </span>
  </div>
  <div
    class="c3"
    data-testid="content"
  />
</div>
`;

exports[`components/MessageList renders correctly with no messages 2`] = `
.c1 {
  margin: 0;
  font-family: "Roboto","Helvetica","Arial",sans-serif;
  font-weight: 500;
  font-size: 1.125rem;
  line-height: 1.6;
  -webkit-letter-spacing: 0.0075em;
  -moz-letter-spacing: 0.0075em;
  -ms-letter-spacing: 0.0075em;
  letter-spacing: 0.0075em;
}

.c2 {
  margin: 0;
  font-family: "Roboto","Helvetica","Arial",sans-serif;
  font-weight: 400;
  font-size: 0.875rem;
  line-height: 1.43;
  -webkit-letter-spacing: 0.01071em;
  -moz-letter-spacing: 0.01071em;
  -ms-letter-spacing: 0.01071em;
  letter-spacing: 0.01071em;
}

.c0 {
  margin-bottom: 8px;
}

.c3 {
  height: 70vh;
  width: 28vw;
  overflow: auto;
}

@media (min-width:600px) {
  .c1 {
    font-size: 1.25rem;
  }
}

@media (min-width:900px) {
  .c1 {
    font-size: 1.25rem;
  }
}

@media (min-width:1200px) {
  .c1 {
    font-size: 1.25rem;
  }
}

<div>
  <div
    class="c0"
  >
    <h4
      class="c1 MuiTypography-root MuiTypography-h6"
    >
      Warning Type 2
    </h4>
    <span
      class="c2 MuiTypography-root MuiTypography-body2"
      data-testid="count"
    >
      Count 
      0
    </span>
  </div>
  <div
    class="c3"
    data-testid="content"
  />
</div>
`;

exports[`components/MessageList renders correctly with no messages 3`] = `
.c1 {
  margin: 0;
  font-family: "Roboto","Helvetica","Arial",sans-serif;
  font-weight: 500;
  font-size: 1.125rem;
  line-height: 1.6;
  -webkit-letter-spacing: 0.0075em;
  -moz-letter-spacing: 0.0075em;
  -ms-letter-spacing: 0.0075em;
  letter-spacing: 0.0075em;
}

.c2 {
  margin: 0;
  font-family: "Roboto","Helvetica","Arial",sans-serif;
  font-weight: 400;
  font-size: 0.875rem;
  line-height: 1.43;
  -webkit-letter-spacing: 0.01071em;
  -moz-letter-spacing: 0.01071em;
  -ms-letter-spacing: 0.01071em;
  letter-spacing: 0.01071em;
}

.c0 {
  margin-bottom: 8px;
}

.c3 {
  height: 70vh;
  width: 28vw;
  overflow: auto;
}

@media (min-width:600px) {
  .c1 {
    font-size: 1.25rem;
  }
}

@media (min-width:900px) {
  .c1 {
    font-size: 1.25rem;
  }
}

@media (min-width:1200px) {
  .c1 {
    font-size: 1.25rem;
  }
}

<div>
  <div
    class="c0"
  >
    <h4
      class="c1 MuiTypography-root MuiTypography-h6"
    >
      Info Type 3
    </h4>
    <span
      class="c2 MuiTypography-root MuiTypography-body2"
      data-testid="count"
    >
      Count 
      0
    </span>
  </div>
  <div
    class="c3"
    data-testid="content"
  />
</div>
`;
