// Jest Snapshot v1, https://goo.gl/fbAQLP

exports[`component/Header works as expected 1`] = `
.c1 {
  width: 100%;
  margin-left: auto;
  box-sizing: border-box;
  margin-right: auto;
  display: block;
  padding-left: 16px;
  padding-right: 16px;
}

.c3 {
  margin: 0;
  -webkit-flex-shrink: 0;
  -ms-flex-negative: 0;
  flex-shrink: 0;
  border-width: 0;
  border-style: solid;
  border-color: rgba(0,0,0,0.12);
  border-bottom-width: thin;
}

.c2 {
  margin: 0;
  font-family: "Roboto","Helvetica","Arial",sans-serif;
  font-weight: 400;
  font-size: 1.5625rem;
  line-height: 1.235;
  -webkit-letter-spacing: 0.00735em;
  -moz-letter-spacing: 0.00735em;
  -ms-letter-spacing: 0.00735em;
  letter-spacing: 0.00735em;
}

.c0 {
  margin-bottom: 24px;
}

@media (min-width:600px) {
  .c1 {
    padding-left: 24px;
    padding-right: 24px;
  }
}

@media (min-width:1536px) {
  .c1 {
    max-width: 1536px;
  }
}

@media (min-width:600px) {
  .c2 {
    font-size: 1.8219rem;
  }
}

@media (min-width:900px) {
  .c2 {
    font-size: 2.0243rem;
  }
}

@media (min-width:1200px) {
  .c2 {
    font-size: 2.0243rem;
  }
}

<header
  class="c0 c1 MuiContainer-root MuiContainer-maxWidthXl"
>
  <h1
    class="c2 MuiTypography-root MuiTypography-h4"
  >
    nunffsaid.com Coding Challenge
  </h1>
  <hr
    class="c3 MuiDivider-root MuiDivider-fullWidth"
  />
</header>
`;
