// Jest Snapshot v1, https://goo.gl/fbAQLP

exports[`container/MessageBoard looks as expected 1`] = `
.c0 {
  width: 100%;
  margin-left: auto;
  box-sizing: border-box;
  margin-right: auto;
  display: block;
  padding-left: 16px;
  padding-right: 16px;
}

.c7 {
  margin: 0;
  font-family: "Roboto","Helvetica","Arial",sans-serif;
  font-weight: 500;
  font-size: 1.125rem;
  line-height: 1.6;
  -webkit-letter-spacing: 0.0075em;
  -moz-letter-spacing: 0.0075em;
  -ms-letter-spacing: 0.0075em;
  letter-spacing: 0.0075em;
}

.c8 {
  margin: 0;
  font-family: "Roboto","Helvetica","Arial",sans-serif;
  font-weight: 400;
  font-size: 0.875rem;
  line-height: 1.43;
  -webkit-letter-spacing: 0.01071em;
  -moz-letter-spacing: 0.01071em;
  -ms-letter-spacing: 0.01071em;
  letter-spacing: 0.01071em;
}

.c4 {
  overflow: hidden;
  pointer-events: none;
  position: absolute;
  z-index: 0;
  top: 0;
  right: 0;
  bottom: 0;
  left: 0;
  border-radius: inherit;
}

.c2 {
  display: -webkit-inline-box;
  display: -webkit-inline-flex;
  display: -ms-inline-flexbox;
  display: inline-flex;
  -webkit-align-items: center;
  -webkit-box-align: center;
  -ms-flex-align: center;
  align-items: center;
  -webkit-box-pack: center;
  -webkit-justify-content: center;
  -ms-flex-pack: center;
  justify-content: center;
  position: relative;
  box-sizing: border-box;
  -webkit-tap-highlight-color: transparent;
  background-color: transparent;
  outline: 0;
  border: 0;
  margin: 0;
  border-radius: 0;
  padding: 0;
  cursor: pointer;
  -webkit-user-select: none;
  -moz-user-select: none;
  -ms-user-select: none;
  user-select: none;
  vertical-align: middle;
  -moz-appearance: none;
  -webkit-appearance: none;
  -webkit-text-decoration: none;
  text-decoration: none;
  color: inherit;
}

.c2::-moz-focus-inner {
  border-style: none;
}

.c2.Mui-disabled {
  pointer-events: none;
  cursor: default;
}

.c3 {
  font-family: "Roboto","Helvetica","Arial",sans-serif;
  font-weight: 500;
  font-size: 0.875rem;
  line-height: 1.75;
  -webkit-letter-spacing: 0.02857em;
  -moz-letter-spacing: 0.02857em;
  -ms-letter-spacing: 0.02857em;
  letter-spacing: 0.02857em;
  text-transform: uppercase;
  min-width: 64px;
  padding: 6px 16px;
  border-radius: 4px;
  -webkit-transition: background-color 250ms cubic-bezier(0.4,0,0.2,1) 0ms,box-shadow 250ms cubic-bezier(0.4,0,0.2,1) 0ms,border-color 250ms cubic-bezier(0.4,0,0.2,1) 0ms,color 250ms cubic-bezier(0.4,0,0.2,1) 0ms;
  transition: background-color 250ms cubic-bezier(0.4,0,0.2,1) 0ms,box-shadow 250ms cubic-bezier(0.4,0,0.2,1) 0ms,border-color 250ms cubic-bezier(0.4,0,0.2,1) 0ms,color 250ms cubic-bezier(0.4,0,0.2,1) 0ms;
  color: rgba(0,0,0,0.87);
  background-color: #88fca3;
  box-shadow: 0px 3px 1px -2px rgba(0,0,0,0.2),0px 2px 2px 0px rgba(0,0,0,0.14),0px 1px 5px 0px rgba(0,0,0,0.12);
}

.c3:hover {
  -webkit-text-decoration: none;
  text-decoration: none;
  background-color: rgb(95,176,114);
  box-shadow: 0px 2px 4px -1px rgba(0,0,0,0.2),0px 4px 5px 0px rgba(0,0,0,0.14),0px 1px 10px 0px rgba(0,0,0,0.12);
}

.c3:active {
  box-shadow: 0px 5px 5px -3px rgba(0,0,0,0.2),0px 8px 10px 1px rgba(0,0,0,0.14),0px 3px 14px 2px rgba(0,0,0,0.12);
}

.c3.Mui-focusVisible {
  box-shadow: 0px 3px 5px -1px rgba(0,0,0,0.2),0px 6px 10px 0px rgba(0,0,0,0.14),0px 1px 18px 0px rgba(0,0,0,0.12);
}

.c3.Mui-disabled {
  color: rgba(0,0,0,0.26);
  box-shadow: none;
  background-color: rgba(0,0,0,0.12);
}

.c6 {
  margin-bottom: 8px;
}

.c9 {
  height: 70vh;
  width: 28vw;
  overflow: auto;
}

.c1 {
  display: -webkit-box;
  display: -webkit-flex;
  display: -ms-flexbox;
  display: flex;
  -webkit-align-items: center;
  -webkit-box-align: center;
  -ms-flex-align: center;
  align-items: center;
  -webkit-box-pack: center;
  -webkit-justify-content: center;
  -ms-flex-pack: center;
  justify-content: center;
  gap: 8px;
}

.c5 {
  display: grid;
  grid-template-columns: repeat(3,1fr);
  grid-gap: 10px;
  margin-top: 16px;
}

@media (min-width:600px) {
  .c0 {
    padding-left: 24px;
    padding-right: 24px;
  }
}

@media (min-width:1200px) {
  .c0 {
    max-width: 1200px;
  }
}

@media (min-width:600px) {
  .c7 {
    font-size: 1.25rem;
  }
}

@media (min-width:900px) {
  .c7 {
    font-size: 1.25rem;
  }
}

@media (min-width:1200px) {
  .c7 {
    font-size: 1.25rem;
  }
}

@media print {
  .c2 {
    color-adjust: exact;
  }
}

@media (hover:none) {
  .c3:hover {
    background-color: #88fca3;
  }
}

<div>
  <div
    class="c0 MuiContainer-root MuiContainer-maxWidthLg"
  >
    <div
      class="c0 MuiContainer-root MuiContainer-maxWidthLg"
    >
      <div
        class="c1"
      >
        <button
          class="c2 MuiButton-root MuiButton-contained MuiButton-containedInfo MuiButton-sizeMedium MuiButton-containedSizeMedium MuiButtonBase-root c3"
          data-testid="action"
          tabindex="0"
          type="button"
        >
          Stop
          <span
            class="c4 MuiTouchRipple-root"
          />
        </button>
        <button
          class="c2 MuiButton-root MuiButton-contained MuiButton-containedInfo MuiButton-sizeMedium MuiButton-containedSizeMedium MuiButtonBase-root c3"
          data-testid="clear"
          tabindex="0"
          type="button"
        >
          Clear all
          <span
            class="c4 MuiTouchRipple-root"
          />
        </button>
      </div>
    </div>
    <div
      class="c5"
      data-testid="list"
    >
      <div>
        <div
          class="c6"
        >
          <h4
            class="c7 MuiTypography-root MuiTypography-h6"
          >
            Error Type 1
          </h4>
          <span
            class="c8 MuiTypography-root MuiTypography-body2"
            data-testid="count"
          >
            Count 
            0
          </span>
        </div>
        <div
          class="c9"
          data-testid="content"
        />
      </div>
      <div>
        <div
          class="c6"
        >
          <h4
            class="c7 MuiTypography-root MuiTypography-h6"
          >
            Warning Type 2
          </h4>
          <span
            class="c8 MuiTypography-root MuiTypography-body2"
            data-testid="count"
          >
            Count 
            0
          </span>
        </div>
        <div
          class="c9"
          data-testid="content"
        />
      </div>
      <div>
        <div
          class="c6"
        >
          <h4
            class="c7 MuiTypography-root MuiTypography-h6"
          >
            Info Type 3
          </h4>
          <span
            class="c8 MuiTypography-root MuiTypography-body2"
            data-testid="count"
          >
            Count 
            0
          </span>
        </div>
        <div
          class="c9"
          data-testid="content"
        />
      </div>
    </div>
  </div>
</div>
`;
